<?xml version="1.0" encoding="utf-8"?>
<!-- Generated by IcoMoon.io -->
<!DOCTYPE svg PUBLIC "-//W3C//DTD SVG 1.1//EN" "http://www.w3.org/Graphics/SVG/1.1/DTD/svg11.dtd">
<svg version="1.1" xmlns="http://www.w3.org/2000/svg" xmlns:xlink="http://www.w3.org/1999/xlink" width="32" height="32" viewBox="0 0 32 32">
<path d="M29.56 12.227c0-5.153-4.18-9.333-9.333-9.333s-9.333 4.18-9.333 9.333c0 4.62 3.36 8.447 7.773 9.193v5.247h-10.667v-4h1.333v-5.333c0-0.733-0.6-1.333-1.333-1.333h-4c-0.733 0-1.333 0.6-1.333 1.333v5.333h1.333v6.667h21.333v-2.667h-4v-5.173c4.633-0.547 8.227-4.487 8.227-9.267zM6 14.667c1.107 0 2-0.893 2-2s-0.893-2-2-2-2 0.893-2 2 0.893 2 2 2z" fill="#ffffff"></path>
</svg>
